134
135
136
195
196
197
106
38
39
107
40
41
108
42
43
109
44
110
45
111
46
112
47
113
114
115
116
117
118
119
120
121
122
124
125
126
127
128
129
130
131
132
133
114
115
116
117
118
119
50
51
52
53
54
55
56
57
58
59
60
61
163
174
165
176
228
237
230
239
166
177
167
178
231
240
233
242
121
52
125
54
127
56
129
131
60
133
234
243
235
244
114
51
124
53
126
55
128
57
130
59
132
61
236
245
114
134
135
136
106
107
108
109
110
111
112
113
114
115
116
117
118
119
41
43
45
47
163
174
165
176
166
177
168
179
40
107
169
180
42
109
170
181
111
171
182
46
113
172
183
173
184
40
106
134
135
136
195
196
197
200
206
201
207
202
208
195
196
197
212
220
213
221
214
222
195
196
197
50
51
52
53
54
55
56
57
58
59
60
61
228
237
230
239
231
240
232
241
195
196
197
106
107
108
109
110
111
112
113
114
115
116
117
118
119
106
107
108
109
110
111
112
113
114
115
116
117
118
119
106
107
108
109
110
111
112
113
114
115
116
117
118
119
106
107
108
109
110
111
112
113
114
115
116
117
118
119
120
121
122
124
125
126
127
128
129
130
131
132
133
114
115
116
117
118
119
120
121
122
124
125
126
127
128
129
130
131
132
133
114
115
116
117
118
119
120
121
122
124
125
126
127
128
129
130
131
132
133
114
115
116
117
118
119
212
220
213
221
215
223
137
140
120
114
216
224
218
226
114
51
124
53
126
55
128
57
130
59
132
61
219
227
106
114
39
106
41
108
43
110
45
112
47
106
114
39
106
41
108
43
110
45
112
47
106
114
39
106
41
108
43
110
45
112
47
138
141
35
67
65
63
37
139
142
34
195
196
197
106
107
108
109
110
111
112
113
114
115
116
117
118
119
120
121
122
124
125
126
127
128
129
130
131
132
133
114
115
116
117
118
119
120
121
122
124
125
126
127
128
129
130
131
132
133
114
115
116
117
118
119
120
121
122
124
125
126
127
128
129
130
131
132
133
114
115
116
117
118
119
200
206
201
207
203
209
204
210
49
205
211
48
198
199
114
51
124
53
126
55
128
57
130
59
132
61
198
199
114
51
124
53
126
55
128
57
130
59
132
61
198
199
114
51
124
53
126
55
128
57
130
59
132
61
195
196
197
38
40
42
44
46
38
40
42
44
46
38
40
42
44
46
134
135
136
106
107
108
109
110
111
112
113
114
115
116
117
118
119
106
107
108
109
110
111
112
113
114
115
116
117
118
119
185
190
186
191
188
193
106
107
108
109
110
111
112
113
114
115
116
117
118
119
120
121
122
124
125
126
127
128
129
130
131
132
133
114
115
116
117
118
119
127
212
220
213
221
215
223
120
114
216
224
218
226
114
51
124
53
126
55
128
57
130
59
132
61
219
227
54
195
196
197
50
51
52
53
54
55
56
57
58
59
60
61
228
237
229
238
189
194
134
135
136
106
107
108
109
110
111
112
113
114
115
116
117
118
119
106
107
108
109
110
111
112
113
114
115
116
117
118
119
106
107
108
109
110
111
112
113
114
115
116
117
118
119
137
140
106
108
106
108
106
108
138
141
35
67
65
63
37
139
142
34
134
135
136
38
39
40
41
42
43
44
45
46
47
163
174
164
175
134
135
136
185
190
186
191
187
192
134
135
136
38
39
40
41
42
43
44
45
46
47
153
158
154
159
134
135
136
106
107
108
109
110
111
112
113
114
115
116
117
118
119
143
148
144
149
146
151
114
39
106
41
108
43
110
45
112
47
147
152
40
134
135
136
38
39
40
41
42
43
44
45
46
47
106
107
108
109
110
111
112
113
114
115
116
117
118
119
106
107
108
109
110
111
112
113
114
115
116
117
118
119
153
158
155
160
40
107
42
109
44
111
46
113
156
161
157
162
114
134
135
136
38
39
40
41
42
43
44
45
46
47
106
107
108
109
110
111
112
113
114
115
116
117
118
119
163
174
165
176
166
177
168
179
40
107
169
180
42
109
170
181
111
171
182
46
113
172
183
173
184
134
135
136
185
190
186
191
187
192
134
135
136
143
148
144
149
145
150
